…
drug.years <- 2011:2015

## Read in each year's data set, add year and drug names, and combine into a single data.frame
spending.data <- map(paste0('data/spending-', drug.years, '.feather'), read_feather) %>%
  map2(drug.years, add_drug_year) %>%
  map(bind_cols, drugnames) %>%
  bind_rows()
```

``` r
spending.data
```

    ## # A tibble: 22,490 × 13
    ##    claim_count total_spending user_count total_spending_per_user
    ##          <dbl>          <dbl>      <dbl>                   <dbl>
    ## 1           24   1.569190e+03         16                98.07438
    ## 2         2472   5.766673e+04        893                64.57641
    ## 3           NA             NA         NA                      NA
    ## 4           12   3.501000e+02         11                31.82727
    ## 5           11   9.003260e+03         NA                      NA
    ## 6           30   2.128600e+02         29                 7.34000
    ## 7           NA             NA         NA                      NA
    ## 8           NA             NA         NA                      NA
    ## 9          363   4.555661e+05         97              4696.55773
    ## 10     2447965   1.469661e+09     360675              4074.75179
    ## # ... with 22,480 more rows, and 9 more variables: unit_count <dbl>,
    ## #   unit_cost_wavg <dbl>, user_count_non_lowincome <dbl>,
    ## #   out_of_pocket_avg_non_lowincome <dbl>, user_count_lowincome <dbl>,
    ## #   out_of_pocket_avg_lowincome <dbl>, drug_year <int>,
    ## #   drugname_brand <chr>, drugname_generic <chr>
…
