…
- Then compute largest diff between largest and smallest price.

```r
df_yearly %>% 
        group_by(drugname_generic) %>%
        summarise(diff = max(tot)-min(tot)) %>%
        arrange( desc(diff))
```

```
## # A tibble: 100 x 2
##                  drugname_generic       diff
##                             <chr>      <dbl>
##  1          CLOPIDOGREL BISULFATE 6825638669
##  2 INSULIN GLARGINE,HUM.REC.ANLOG 5898753265
##  3           ATORVASTATIN CALCIUM 4083817019
##  4            QUETIAPINE FUMARATE 3259919242
##  5           ROSUVASTATIN CALCIUM 2933614943
##  6                 DULOXETINE HCL 2437592083
##  7             TIOTROPIUM BROMIDE 2026517571
##  8                  DONEPEZIL HCL 1698639752
##  9                  MEMANTINE HCL 1582852432
## 10                      VALSARTAN 1479791635
## # ... with 90 more rows
```
